﻿id,title,body_html,vendor,product_type,created_at,handle,updated_at,published_at,template_suffix,status,published_scope,tags,admin_graphql_api_id,image
4635585314883,09I8ZQ8UGQ,null,MishiPayTestDevelopmentEmptyStore,Snowboard,2021-02-21T07:03:30-05:00,09i8zq8ugq,2021-03-09T00:45:23-05:00,2020-09-16T02:22:38-04:00,null,active,global,,gid://shopify/Product/4635585314883,null
4635584921667,0QQR7B6Z74,null,MishiPayTestDevelopmentEmptyStore,Snowboard,2021-02-21T06:58:33-05:00,0qqr7b6z74,2021-02-23T08:00:44-05:00,2020-09-16T02:22:38-04:00,null,active,global,,gid://shopify/Product/4635584921667,null
4635577909315,21PVPE5R5N,null,MishiPayTestDevelopmentEmptyStore,Snowboard,2021-02-21T04:46:44-05:00,21pvpe5r5n,2021-02-21T04:46:44-05:00,2020-09-16T02:22:38-04:00,null,active,global,,gid://shopify/Product/4635577909315,null
4635581612099,2A0RABO5GB,null,MishiPayTestDevelopmentEmptyStore,Snowboard,2021-02-21T06:48:06-05:00,2a0rabo5gb,2021-02-21T06:48:07-05:00,2020-09-16T02:22:38-04:00,null,active,global,,gid://shopify/Product/4635581612099,null
4635586560067,2EG288ED6A,null,MishiPayTestDevelopmentEmptyStore,Snowboard,2021-02-21T07:13:38-05:00,2eg288ed6a,2021-02-21T07:13:38-05:00,2020-09-16T02:22:38-04:00,null,active,global,,gid://shopify/Product/4635586560067,null
4635578892355,383N1LYML5,null,MishiPayTestDevelopmentEmptyStore,Snowboard,2021-02-21T05:10:54-05:00,383n1lyml5,2021-02-21T05:10:55-05:00,2020-09-16T02:22:38-04:00,null,active,global,,gid://shopify/Product/4635578892355,null
4635580891203,3DXUCTYF4O,null,MishiPayTestDevelopmentEmptyStore,Snowboard,2021-02-21T06:37:50-05:00,3dxuctyf4o,2021-02-21T06:37:50-05:00,2020-09-16T02:22:38-04:00,null,active,global,,gid://shopify/Product/4635580891203,null
4635578531907,3FLM9T8823,null,MishiPayTestDevelopmentEmptyStore,Snowboard,2021-02-21T05:01:40-05:00,3flm9t8823,2021-02-21T05:01:41-05:00,2020-09-16T02:22:38-04:00,null,active,global,,gid://shopify/Product/4635578531907,null
4635585216579,402PZKJSP3,null,MishiPayTestDevelopmentEmptyStore,Snowboard,2021-02-21T07:02:41-05:00,402pzkjsp3,2021-02-21T07:02:42-05:00,2020-09-16T02:22:38-04:00,null,active,global,,gid://shopify/Product/4635585216579,null
4635583053891,4MRBJXA1M9,null,MishiPayTestDevelopmentEmptyStore,Snowboard,2021-02-21T06:52:20-05:00,4mrbjxa1m9,2021-02-21T06:52:20-05:00,2020-09-16T02:22:38-04:00,null,active,global,,gid://shopify/Product/4635583053891,null
4635578990659,5DU7F2VYKN,null,MishiPayTestDevelopmentEmptyStore,Snowboard,2021-02-21T05:13:07-05:00,5du7f2vykn,2021-02-21T05:13:07-05:00,2020-09-16T02:22:38-04:00,null,active,global,,gid://shopify/Product/4635578990659,null
4635580760131,63FVC9VTFA,null,MishiPayTestDevelopmentEmptyStore,Snowboard,2021-02-21T06:31:45-05:00,63fvc9vtfa,2021-02-21T06:31:45-05:00,2020-09-16T02:22:38-04:00,null,active,global,,gid://shopify/Product/4635580760131,null
4635578695747,7MXR99MECQ,null,MishiPayTestDevelopmentEmptyStore,Snowboard,2021-02-21T05:03:07-05:00,7mxr99mecq,2021-02-21T05:03:07-05:00,2020-09-16T02:22:38-04:00,null,active,global,,gid://shopify/Product/4635578695747,null
4635584888899,ATB5YYBFJX,null,MishiPayTestDevelopmentEmptyStore,Snowboard,2021-02-21T06:58:14-05:00,atb5yybfjx,2021-02-21T06:58:14-05:00,2020-09-16T02:22:38-04:00,null,active,global,,gid://shopify/Product/4635584888899,null
4560304111683,Burton Custom Freestyle 151,null,MishiPayTestDevelopmentEmptyStore,Snowboard,2020-09-16T02:22:38-04:00,burton-custom-freestyle-152,2021-02-20T16:00:34-05:00,2020-09-16T02:22:38-04:00,null,active,global,,gid://shopify/Product/4560304111683,null
4560304177219,Burton Custom Freestyle 151,null,MishiPayTestDevelopmentEmptyStore,Snowboard,2020-09-16T02:22:53-04:00,burton-custom-freestyle-153,2021-02-20T15:15:32-05:00,2020-09-16T02:22:53-04:00,null,active,global,,gid://shopify/Product/4560304177219,null
4635584987203,BZDODCSEOX,null,MishiPayTestDevelopmentEmptyStore,Snowboard,2021-02-21T06:59:16-05:00,bzdodcseox,2021-02-21T06:59:17-05:00,2020-09-16T02:22:38-04:00,null,active,global,,gid://shopify/Product/4635584987203,null
4635578957891,CICDE06GDN,null,MishiPayTestDevelopmentEmptyStore,Snowboard,2021-02-21T05:11:40-05:00,cicde06gdn,2021-02-21T05:11:40-05:00,2020-09-16T02:22:38-04:00,null,active,global,,gid://shopify/Product/4635578957891,null
4635578433603,CXZ0QKV7WX,null,MishiPayTestDevelopmentEmptyStore,Snowboard,2021-02-21T05:00:15-05:00,cxz0qkv7wx,2021-02-21T05:00:15-05:00,2020-09-16T02:22:38-04:00,null,active,global,,gid://shopify/Product/4635578433603,null
4635578728515,DEYQD7PIE1,null,MishiPayTestDevelopmentEmptyStore,Snowboard,2021-02-21T05:03:56-05:00,deyqd7pie1,2021-02-21T05:03:56-05:00,2020-09-16T02:22:38-04:00,null,active,global,,gid://shopify/Product/4635578728515,null
4635580432451,DI6U0AS90M,null,MishiPayTestDevelopmentEmptyStore,Snowboard,2021-02-21T06:24:29-05:00,di6u0as90m,2021-02-21T06:24:29-05:00,2020-09-16T02:22:38-04:00,null,active,global,,gid://shopify/Product/4635580432451,null
4635578925123,ELLIBVNNH8,null,MishiPayTestDevelopmentEmptyStore,Snowboard,2021-02-21T05:11:20-05:00,ellibvnnh8,2021-02-21T05:11:20-05:00,2020-09-16T02:22:38-04:00,null,active,global,,gid://shopify/Product/4635578925123,null
4635584725059,F16LN954IS,null,MishiPayTestDevelopmentEmptyStore,Snowboard,2021-02-21T06:57:05-05:00,f16ln954is,2021-02-21T06:57:05-05:00,2020-09-16T02:22:38-04:00,null,active,global,,gid://shopify/Product/4635584725059,null
4635581349955,F60CX1YIN3,null,MishiPayTestDevelopmentEmptyStore,Snowboard,2021-02-21T06:43:16-05:00,f60cx1yin3,2021-02-21T06:43:16-05:00,2020-09-16T02:22:38-04:00,null,active,global,,gid://shopify/Product/4635581349955,null
4635580072003,FFL0KXFFH5,null,MishiPayTestDevelopmentEmptyStore,Snowboard,2021-02-21T06:18:14-05:00,ffl0kxffh5,2021-02-21T06:18:14-05:00,2020-09-16T02:22:38-04:00,null,active,global,,gid://shopify/Product/4635580072003,null
4635578171459,FIRFA8HH7W,null,MishiPayTestDevelopmentEmptyStore,Snowboard,2021-02-21T04:51:47-05:00,firfa8hh7w,2021-02-21T04:51:47-05:00,2020-09-16T02:22:38-04:00,null,active,global,,gid://shopify/Product/4635578171459,null
4635579973699,FWQBWT9Y6A,null,MishiPayTestDevelopmentEmptyStore,Snowboard,2021-02-21T06:17:34-05:00,fwqbwt9y6a,2021-02-21T06:17:34-05:00,2020-09-16T02:22:38-04:00,null,active,global,,gid://shopify/Product/4635579973699,null
4635581579331,H8KG61MWAT,null,MishiPayTestDevelopmentEmptyStore,Snowboard,2021-02-21T06:47:50-05:00,h8kg61mwat,2021-02-21T06:47:51-05:00,2020-09-16T02:22:38-04:00,null,active,global,,gid://shopify/Product/4635581579331,null
4635581415491,HBOKF3ITPM,null,MishiPayTestDevelopmentEmptyStore,Snowboard,2021-02-21T06:45:52-05:00,hbokf3itpm,2021-02-21T06:45:52-05:00,2020-09-16T02:22:38-04:00,null,active,global,,gid://shopify/Product/4635581415491,null
4635495202883,Hitesh One Plus 101,"<meta http-equiv=""content-type"" content=""text/html; charset=utf-8"">\n<ul class=""a-unordered-list a-vertical a-spacing-none"">\n<li><span class=""a-list-item"">Rear Camera; 48MP (Primary)+ 8MP (Tele-photo)+16MP (ultrawide); Front Camera;16 MP POP-UP Camera; You will need to chargethe phone when you first get it or if you have not used it for a long time</span></li>\n<li><span class=""a-list-item"">16.9 centimeters (6.67-inch) multi-touch capacitive touchscreen with 3120 x 1440 pixels resolution</span></li>\n<li><span class=""a-list-item"">Memory, Storage and SIM: 8GB RAM | 256GB internal memory | Dual SIM dual-standby (4G+4G)</span></li>\n<li><span class=""a-list-item"">Android Oxygen operating system with 2.84GHz Snapdragon 855 octa core processor</span></li>\n<li><span class=""a-list-item"">4000mAH lithium-ion battery, Buttons: Gestures and on-screen navigation support; Alert Slider</span></li>\n<li><span class=""a-list-item"">1 year manufacturer warranty for device and 6 months manufacturer warranty for in-box accessories including batteries from the date of purchase</span></li>\n<li><span class=""a-list-item"">Box also includes: Power Adapter, Type-C Cable (Support USB 2.0), Quick Start Guide, Welcome Letter, Safety Information and Warranty Card, Logo Sticker, Case, Screen Protector (pre-applied) and SIM Tray Ejector</span></li>\n</ul>",vendor,product_type,2021-02-20T02:18:38-05:00,hitesh-one-plus-101,2021-02-21T06:35:31-05:00,2020-02-27T12:45:17-05:00,,active,global,,gid://shopify/Product/4635495202883,null
4635495268419,Hitesh One Plus 101,"<meta http-equiv=""content-type"" content=""text/html; charset=utf-8"">\n<ul class=""a-unordered-list a-vertical a-spacing-none"">\n<li><span class=""a-list-item"">Rear Camera; 48MP (Primary)+ 8MP (Tele-photo)+16MP (ultrawide); Front Camera;16 MP POP-UP Camera; You will need to chargethe phone when you first get it or if you have not used it for a long time</span></li>\n<li><span class=""a-list-item"">16.9 centimeters (6.67-inch) multi-touch capacitive touchscreen with 3120 x 1440 pixels resolution</span></li>\n<li><span class=""a-list-item"">Memory, Storage and SIM: 8GB RAM | 256GB internal memory | Dual SIM dual-standby (4G+4G)</span></li>\n<li><span class=""a-list-item"">Android Oxygen operating system with 2.84GHz Snapdragon 855 octa core processor</span></li>\n<li><span class=""a-list-item"">4000mAH lithium-ion battery, Buttons: Gestures and on-screen navigation support; Alert Slider</span></li>\n<li><span class=""a-list-item"">1 year manufacturer warranty for device and 6 months manufacturer warranty for in-box accessories including batteries from the date of purchase</span></li>\n<li><span class=""a-list-item"">Box also includes: Power Adapter, Type-C Cable (Support USB 2.0), Quick Start Guide, Welcome Letter, Safety Information and Warranty Card, Logo Sticker, Case, Screen Protector (pre-applied) and SIM Tray Ejector</span></li>\n</ul>",vendor,product_type,2021-02-20T02:20:02-05:00,hitesh-one-plus-102,2021-02-20T02:20:02-05:00,2020-02-27T12:45:17-05:00,,active,global,,gid://shopify/Product/4635495268419,null
4635496087619,Hitesh One Plus 101,"<meta http-equiv=""content-type"" content=""text/html; charset=utf-8"">\n<ul class=""a-unordered-list a-vertical a-spacing-none"">\n<li><span class=""a-list-item"">Rear Camera; 48MP (Primary)+ 8MP (Tele-photo)+16MP (ultrawide); Front Camera;16 MP POP-UP Camera; You will need to chargethe phone when you first get it or if you have not used it for a long time</span></li>\n<li><span class=""a-list-item"">16.9 centimeters (6.67-inch) multi-touch capacitive touchscreen with 3120 x 1440 pixels resolution</span></li>\n<li><span class=""a-list-item"">Memory, Storage and SIM: 8GB RAM | 256GB internal memory | Dual SIM dual-standby (4G+4G)</span></li>\n<li><span class=""a-list-item"">Android Oxygen operating system with 2.84GHz Snapdragon 855 octa core processor</span></li>\n<li><span class=""a-list-item"">4000mAH lithium-ion battery, Buttons: Gestures and on-screen navigation support; Alert Slider</span></li>\n<li><span class=""a-list-item"">1 year manufacturer warranty for device and 6 months manufacturer warranty for in-box accessories including batteries from the date of purchase</span></li>\n<li><span class=""a-list-item"">Box also includes: Power Adapter, Type-C Cable (Support USB 2.0), Quick Start Guide, Welcome Letter, Safety Information and Warranty Card, Logo Sticker, Case, Screen Protector (pre-applied) and SIM Tray Ejector</span></li>\n</ul>",vendor,product_type,2021-02-20T02:36:05-05:00,hitesh-one-plus-103,2021-02-20T02:36:05-05:00,2020-02-27T12:45:17-05:00,,active,global,,gid://shopify/Product/4635496087619,null
4635496120387,Hitesh One Plus 101,"<meta http-equiv=""content-type"" content=""text/html; charset=utf-8"">\n<ul class=""a-unordered-list a-vertical a-spacing-none"">\n<li><span class=""a-list-item"">Rear Camera; 48MP (Primary)+ 8MP (Tele-photo)+16MP (ultrawide); Front Camera;16 MP POP-UP Camera; You will need to chargethe phone when you first get it or if you have not used it for a long time</span></li>\n<li><span class=""a-list-item"">16.9 centimeters (6.67-inch) multi-touch capacitive touchscreen with 3120 x 1440 pixels resolution</span></li>\n<li><span class=""a-list-item"">Memory, Storage and SIM: 8GB RAM | 256GB internal memory | Dual SIM dual-standby (4G+4G)</span></li>\n<li><span class=""a-list-item"">Android Oxygen operating system with 2.84GHz Snapdragon 855 octa core processor</span></li>\n<li><span class=""a-list-item"">4000mAH lithium-ion battery, Buttons: Gestures and on-screen navigation support; Alert Slider</span></li>\n<li><span class=""a-list-item"">1 year manufacturer warranty for device and 6 months manufacturer warranty for in-box accessories including batteries from the date of purchase</span></li>\n<li><span class=""a-list-item"">Box also includes: Power Adapter, Type-C Cable (Support USB 2.0), Quick Start Guide, Welcome Letter, Safety Information and Warranty Card, Logo Sticker, Case, Screen Protector (pre-applied) and SIM Tray Ejector</span></li>\n</ul>",vendor,product_type,2021-02-20T02:36:39-05:00,hitesh-one-plus-104,2021-02-27T10:05:46-05:00,2020-02-27T12:45:17-05:00,,active,global,,gid://shopify/Product/4635496120387,null
4635496284227,Hitesh One Plus 101,"<meta http-equiv=""content-type"" content=""text/html; charset=utf-8"">\n<ul class=""a-unordered-list a-vertical a-spacing-none"">\n<li><span class=""a-list-item"">Rear Camera; 48MP (Primary)+ 8MP (Tele-photo)+16MP (ultrawide); Front Camera;16 MP POP-UP Camera; You will need to chargethe phone when you first get it or if you have not used it for a long time</span></li>\n<li><span class=""a-list-item"">16.9 centimeters (6.67-inch) multi-touch capacitive touchscreen with 3120 x 1440 pixels resolution</span></li>\n<li><span class=""a-list-item"">Memory, Storage and SIM: 8GB RAM | 256GB internal memory | Dual SIM dual-standby (4G+4G)</span></li>\n<li><span class=""a-list-item"">Android Oxygen operating system with 2.84GHz Snapdragon 855 octa core processor</span></li>\n<li><span class=""a-list-item"">4000mAH lithium-ion battery, Buttons: Gestures and on-screen navigation support; Alert Slider</span></li>\n<li><span class=""a-list-item"">1 year manufacturer warranty for device and 6 months manufacturer warranty for in-box accessories including batteries from the date of purchase</span></li>\n<li><span class=""a-list-item"">Box also includes: Power Adapter, Type-C Cable (Support USB 2.0), Quick Start Guide, Welcome Letter, Safety Information and Warranty Card, Logo Sticker, Case, Screen Protector (pre-applied) and SIM Tray Ejector</span></li>\n</ul>",vendor,product_type,2021-02-20T02:40:29-05:00,hitesh-one-plus-105,2021-02-20T02:40:29-05:00,2020-02-27T12:45:17-05:00,,active,global,,gid://shopify/Product/4635496284227,null
4635532230723,Hitesh One Plus 101,"<meta http-equiv=""content-type"" content=""text/html; charset=utf-8"">\n<ul class=""a-unordered-list a-vertical a-spacing-none"">\n<li><span class=""a-list-item"">Rear Camera; 48MP (Primary)+ 8MP (Tele-photo)+16MP (ultrawide); Front Camera;16 MP POP-UP Camera; You will need to chargethe phone when you first get it or if you have not used it for a long time</span></li>\n<li><span class=""a-list-item"">16.9 centimeters (6.67-inch) multi-touch capacitive touchscreen with 3120 x 1440 pixels resolution</span></li>\n<li><span class=""a-list-item"">Memory, Storage and SIM: 8GB RAM | 256GB internal memory | Dual SIM dual-standby (4G+4G)</span></li>\n<li><span class=""a-list-item"">Android Oxygen operating system with 2.84GHz Snapdragon 855 octa core processor</span></li>\n<li><span class=""a-list-item"">4000mAH lithium-ion battery, Buttons: Gestures and on-screen navigation support; Alert Slider</span></li>\n<li><span class=""a-list-item"">1 year manufacturer warranty for device and 6 months manufacturer warranty for in-box accessories including batteries from the date of purchase</span></li>\n<li><span class=""a-list-item"">Box also includes: Power Adapter, Type-C Cable (Support USB 2.0), Quick Start Guide, Welcome Letter, Safety Information and Warranty Card, Logo Sticker, Case, Screen Protector (pre-applied) and SIM Tray Ejector</span></li>\n</ul>",vendor,product_type,2021-02-20T14:28:47-05:00,hitesh-one-plus-106,2021-02-20T14:28:47-05:00,2020-02-27T12:45:17-05:00,,active,global,,gid://shopify/Product/4635532230723,null
4635495170115,"Hitesh OnePlus 8 Pro (Nebula Blue, 8GB RAM, Fluid AMOLED Display, 256GB Storage, 4000mAH Battery)","<meta http-equiv=""content-type"" content=""text/html; charset=utf-8"">\n<ul class=""a-unordered-list a-vertical a-spacing-none"">\n<li><span class=""a-list-item"">Rear Camera; 48MP (Primary)+ 8MP (Tele-photo)+16MP (ultrawide); Front Camera;16 MP POP-UP Camera; You will need to chargethe phone when you first get it or if you have not used it for a long time</span></li>\n<li><span class=""a-list-item"">16.9 centimeters (6.67-inch) multi-touch capacitive touchscreen with 3120 x 1440 pixels resolution</span></li>\n<li><span class=""a-list-item"">Memory, Storage and SIM: 8GB RAM | 256GB internal memory | Dual SIM dual-standby (4G+4G)</span></li>\n<li><span class=""a-list-item"">Android Oxygen operating system with 2.84GHz Snapdragon 855 octa core processor</span></li>\n<li><span class=""a-list-item"">4000mAH lithium-ion battery, Buttons: Gestures and on-screen navigation support; Alert Slider</span></li>\n<li><span class=""a-list-item"">1 year manufacturer warranty for device and 6 months manufacturer warranty for in-box accessories including batteries from the date of purchase</span></li>\n<li><span class=""a-list-item"">Box also includes: Power Adapter, Type-C Cable (Support USB 2.0), Quick Start Guide, Welcome Letter, Safety Information and Warranty Card, Logo Sticker, Case, Screen Protector (pre-applied) and SIM Tray Ejector</span></li>\n</ul>",vendor,product_type,2021-02-20T02:18:37-05:00,hitesh-oneplus-8-pro-nebula-blue-8gb-ram-fluid-amoled-display-256gb-storage-4000mah-battery,2021-02-20T02:18:37-05:00,2020-02-27T11:05:14-05:00,,active,global,,gid://shopify/Product/4635495170115,null
4408178344003,Hitesh OnePlus 8 Pro simple model,SIMPLE DESC,vendor,product_type,2020-02-27T12:45:17-05:00,oneplus-7-pro-nebula-blue-8gb-ram-fluid-amoled-display-256gb-storage-4000mah-battery-1,2021-02-20T14:28:45-05:00,2020-02-27T11:05:14-05:00,,active,global,,gid://shopify/Product/4408178344003,
4635496054851,Hitesh OnePlus 8 Pro simple model,SIMPLE DESC,vendor,product_type,2021-02-20T02:36:04-05:00,hitesh-oneplus-8-pro-simple-model,2021-02-20T15:51:04-05:00,2020-02-27T11:05:14-05:00,,active,global,,gid://shopify/Product/4635496054851,null
4635437498435,Hitesh test,<strong>Good Hitesh snowboard!</strong>,Burton,Snowboard,2021-02-19T15:56:01-05:00,hitesh-test,2021-02-19T15:56:01-05:00,2021-02-19T15:56:01-05:00,null,active,global,"Barnes & Noble, Big Air, John's Fav",gid://shopify/Product/4635437498435,null
4635578073155,HSXQM2S05F,null,MishiPayTestDevelopmentEmptyStore,Snowboard,2021-02-21T04:48:16-05:00,hsxqm2s05f,2021-02-21T04:48:16-05:00,2020-09-16T02:22:38-04:00,null,active,global,,gid://shopify/Product/4635578073155,null
4635586527299,ILXBG8I7VG,null,MishiPayTestDevelopmentEmptyStore,Snowboard,2021-02-21T07:13:36-05:00,ilxbg8i7vg,2021-02-21T07:13:37-05:00,2020-09-16T02:22:38-04:00,null,active,global,,gid://shopify/Product/4635586527299,null
4635578859587,IR4XQEKAS0,null,MishiPayTestDevelopmentEmptyStore,Snowboard,2021-02-21T05:08:05-05:00,ir4xqekas0,2021-02-21T05:08:05-05:00,2020-09-16T02:22:38-04:00,null,active,global,,gid://shopify/Product/4635578859587,null
4635581120579,L8FLPSSSV9,null,MishiPayTestDevelopmentEmptyStore,Snowboard,2021-02-21T06:42:02-05:00,l8flpsssv9,2021-02-21T06:42:02-05:00,2020-09-16T02:22:38-04:00,null,active,global,,gid://shopify/Product/4635581120579,null
4635580596291,LW6FXPAEZZ,null,MishiPayTestDevelopmentEmptyStore,Snowboard,2021-02-21T06:27:13-05:00,lw6fxpaezz,2021-02-21T06:27:13-05:00,2020-09-16T02:22:38-04:00,null,active,global,,gid://shopify/Product/4635580596291,null
4539891679299,Mi New Phone,Latest in all feature,Mi,,2020-08-23T11:56:08-04:00,mi-new-phone,2021-02-21T10:50:31-05:00,2020-08-23T11:56:08-04:00,null,active,global,,gid://shopify/Product/4539891679299,null
4635577778243,MM4HZM7F2R,null,MishiPayTestDevelopmentEmptyStore,Snowboard,2021-02-21T04:44:26-05:00,mm4hzm7f2r,2021-02-21T04:44:27-05:00,2020-09-16T02:22:38-04:00,null,active,global,,gid://shopify/Product/4635577778243,null
4635578564675,NXY90F95JD,null,MishiPayTestDevelopmentEmptyStore,Snowboard,2021-02-21T05:01:56-05:00,nxy90f95jd,2021-02-21T05:01:57-05:00,2020-09-16T02:22:38-04:00,null,active,global,,gid://shopify/Product/4635578564675,null
4635585413187,OHH2U2D6XP,null,MishiPayTestDevelopmentEmptyStore,Snowboard,2021-02-21T07:07:41-05:00,ohh2u2d6xp,2021-02-21T07:07:41-05:00,2020-09-16T02:22:38-04:00,null,active,global,,gid://shopify/Product/4635585413187,null
4408136663107,"OnePlus 7 Pro (Nebula Blue, 8GB RAM, Fluid AMOLED Display, 256GB Storage, 4000mAH Battery)","<meta http-equiv=""content-type"" content=""text/html; charset=utf-8"">\n<ul class=""a-unordered-list a-vertical a-spacing-none"">\n<li><span class=""a-list-item"">Rear Camera; 48MP (Primary)+ 8MP (Tele-photo)+16MP (ultrawide); Front Camera;16 MP POP-UP Camera; You will need to chargethe phone when you first get it or if you have not used it for a long time</span></li>\n<li><span class=""a-list-item"">16.9 centimeters (6.67-inch) multi-touch capacitive touchscreen with 3120 x 1440 pixels resolution</span></li>\n<li><span class=""a-list-item"">Memory, Storage and SIM: 8GB RAM | 256GB internal memory | Dual SIM dual-standby (4G+4G)</span></li>\n<li><span class=""a-list-item"">Android Oxygen operating system with 2.84GHz Snapdragon 855 octa core processor</span></li>\n<li><span class=""a-list-item"">4000mAH lithium-ion battery, Buttons: Gestures and on-screen navigation support; Alert Slider</span></li>\n<li><span class=""a-list-item"">1 year manufacturer warranty for device and 6 months manufacturer warranty for in-box accessories including batteries from the date of purchase</span></li>\n<li><span class=""a-list-item"">Box also includes: Power Adapter, Type-C Cable (Support USB 2.0), Quick Start Guide, Welcome Letter, Safety Information and Warranty Card, Logo Sticker, Case, Screen Protector (pre-applied) and SIM Tray Ejector</span></li>\n</ul>",vendor,product_type,2020-02-27T11:28:22-05:00,oneplus-7-pro-nebula-blue-8gb-ram-fluid-amoled-display-256gb-storage-4000mah-battery,2021-03-09T03:35:05-05:00,2020-02-27T11:05:14-05:00,,active,global,,gid://shopify/Product/4408136663107,
4635581513795,PJNMSG11OT,null,MishiPayTestDevelopmentEmptyStore,Snowboard,2021-02-21T06:46:46-05:00,pjnmsg11ot,2021-02-21T06:46:46-05:00,2020-09-16T02:22:38-04:00,null,active,global,,gid://shopify/Product/4635581513795,null